{
  "name": "develop",
  "description":"This is it",
  "chef_type": "environment",
  "json_class": "Chef::Environment",
  "default_attributes": {
    "host": {
      "mode": "desktop"
    },
//    "postfix": {
//      "relay": {
//        "smtphost"  : "smtp.gmail.com",
//        "smtpport"  : "587",
//        "usetls"    : "yes",
//        "smtpuser"  : "foo@gmail.com",
//        "smtppasswd": "your password"
//      } 
//    },
    "mysql": {
      "rootpasswd": "rootpasswd",
      "mydbname"  : "mydb",
      "myuser"    : "myuser",
      "mypasswd"  : "mypass"
    }
  },
  "override_attributes": {}
}
